{
  "location": {
    "countryIsoCode": "AU",
    "countryName": "Australia",
    "regionIsoCode": "NSW",
    "regionName": "New South Wales",
    "city": "Sydney",
    "latitude": -33.8591,
    "longitude": 151.2002
  },
  "user": {
    "name": "Supernova Team",
    "email": "bob-invoice@example.com"
  },
  "featureFlags": {
    "atlassian-access-warnings": true,
    "new-change-edition-flow": false,
    "churn-survey.required": true,
    "2018-price-update-notice": true,
    "2018-price-changed-info": false,
    "2018-upcoming-currency-notice": true,
    "tax.qst": true
  },
  "multivariateFeatureFlags": {
    "growth.manage.subscriptions.xsell.experiment": "not-enrolled"
  }
}
