{
  "baseUrl": "http://localhost:4000",
  "fileServerFolder": "./tests/cypress",
  "pluginsFile": "./tests/cypress/plugins/index.js",
  "screenshotsFolder": "./build-output/tests/cypress/screenshots",
  "supportFile": "./tests/cypress/support/index.js",
  "fixturesFolder": "./mock-server/bux/api",
  "videosFolder": "./build-output/tests/cypress/videos",
  "integrationFolder": "./tests/cypress/integration",
  "viewportWidth": 1600,
  "viewportHeight": 1200,
  "video": false,
  "blacklistHosts": [
    "*newrelic.com",
    "*app.launchdarkly.com",
    "*nr-data.net",
    "*avatar-cdn.atlassian.com",
    "*segment.io"
  ],
  "defaultCommandTimeout": 8000,
  "requestTimeout": 10000,

  "env": {
    "cloudUrl": "/s/38b7be26-03f7-42a9-b18b-9cdb56d204c2/billing",
    "organizationUrl": "/o/1363002c-4b37-303f-b9e3-06734d54989a/billing"
  }
}
