{
  "invoiceContactId": "4d854acf-e651-4a4b-bdd0-d0c76f0995ed/invoice-contact",
  "name": "Atlassian Cloud",
  "creationDate": "2016-12-05",
  "currentBillingPeriod": {
    "endDate": "2016-12-17",
    "startDate": "2016-12-05",
    "renewalFrequency": "MONTHLY"
  },
  "billingDetailsId": "f35ecb89-18d8-4ac3-9595-8287fc199ef0",
  "status": "ACTIVE",
  "entitlements": [
    {
      "status": "ACTIVE",
      "accountId": "7530796",
      "productKey": "com.atlassian.identity-manager",
      "endDate": "2016-12-17",
      "id": "test-e2ac-492e-a3bb-e1c310764049",
      "startDate": "2016-12-05",
      "sen": "A814679",
      "name": "Atlassian Access (Cloud)",
      "creationDate": "2016-12-05",
      "trialEndDate": "2016-12-17",
      "entitlementGroupId": "4d854acf-e651-4a4b-bdd0-d0c76f0995ed"
    }
  ],
  "accountId": "363bf5a5-47d7-42f9-9c51-930c40d6b3b9",
  "id": "4d854acf-e651-4a4b-bdd0-d0c76f0995ed",
  "autoRenewed": true,
  "sen": "A813573"
}