{
	"reconcilable": [{
		"id": 56789000,
		"type": "SEN",
		"fromCurrency": "JPY",
		"toCurrency": "GBR",
		"country": "Australia",
		"message": "Setting chosen country (Australia) on contact will result in a change of currency on account SEN-56789000 from JPY to USD."
	}],
	"irreconcilable": [{
			"id": 129387463,
			"type": "AT",
			"fromCurrency": "JPY",
			"toCurrency": "GBR",
			"country": "Australia",
			"message": "Quote AT-129387463 has a currency JPY which is incompatible with the chosen country (Australia)."
		},
		{
			"id": 12681461,
			"type": "SEN",
			"fromCurrency": "JPY",
			"toCurrency": "GBR",
			"country": "Australia",
			"message": "SEN-12681461 has a currency (JPY) which is incompatible with the chosen country (Australia)."
		}
	]
}