{
  "billingUXServiceUrl": "/gateway/api/billing-ux",
  "environment": "local",
  "log": {
    "analyticsscheme": "http",
    "analyticsserver": "localhost:3100",
    "analyticsurl": "/mock-events"
  },
  "macUrl": "https://my.stg.internal.atlassian.com/",
  "strideUrl": "http://localhost:3100/stride",
  "tnsHostedSessionScript": "http://localhost:3100/mock-tns/${MERCHANT_ID}/mock-session.js",
  "surveyGizmoUrl": "http://www.surveygizmo.com/s3/3851437/Supernova-Purchasing-Cloud-CSAT?version=cloud&source=bux",
  "marketplaceUrl": {
    "jira": "/plugins/servlet/upm/marketplace",
    "confluence": "/wiki/plugins/servlet/upm/marketplace"
  },
  "strideBaseUrl": "https://app.staging.stride.com",
  "autocomplete": {
    "provider": "google",
    "google_apikey": "_APIKEY_",
    "google_placesAPI": "/gateway/api/billing-ux/api/place/autocomplete/?",
    "google_detailAPI": "/gateway/api/billing-ux/api/place/details/?"
  },
  "defaultPricingLink": "https://www.atlassian.com/software",
  "paypalCheckoutUrl": "https://www.paypalobjects.com/api/checkout.js",
  "paypalCompanyDisplayName": "Atlassian - Localhost",
  "payPalEnvironment": "sandbox"
}
